Severity statistical analysis
…
Repeated Measures

First, call the data for severity.

source("Data Organized/Data Severity.R")

New names:
• `` -> `...4`
• `` -> `...5`
• `` -> `...6`
• `` -> `...7`

print(data_long)

# A tibble: 125 × 5
   Treatment Block Weeks Severity Samples
   <chr>     <dbl> <chr>    <dbl>   <int>
 1 Control       1 Week1        0       1
 2 Control       1 Week3        0       2
 3 Control       1 Week5        0       3
 4 Control       1 Week7        0       4
 5 Control       1 Week9        0       5
 6 Control       2 Week1        0       6
 7 Control       2 Week3        0       7
 8 Control       2 Week5        0       8
 9 Control       2 Week7        0       9
10 Control       2 Week9        0      10
# ℹ 115 more rows
…
